<?xml version="1.0" encoding="UTF-8"?>
<session version="1.0">
<refactoring comment="Copy element &apos;mysql-connector-java-8.0.16.jar&apos; to &apos;lib&apos;&#x0D;&#x0A;- Original project: &apos;10_book_manager&apos;&#x0D;&#x0A;- Destination element: &apos;lib&apos;&#x0D;&#x0A;- Original element: &apos;mysql-connector-java-8.0.16.jar&apos;" description="Copy file" element1="WebContent/WEB-INF/lib/mysql-connector-java-8.0.16.jar" files="1" flags="589830" folders="0" id="org.eclipse.jdt.ui.copy" policy="org.eclipse.jdt.ui.copyResources" stamp="1559462489375" target="/Hyeon_Toeic/WebContent/WEB-INF/lib" units="0" version="1.0"/>
</session>