<?xml version="1.0" encoding="UTF-8"?>
<session version="1.0">
<refactoring comment="Rename package &apos;com.example.stdtagtest&apos; to &apos;com.example.stdtagtest.domain&apos;&#x0D;&#x0A;- Original project: &apos;11_std_tag_test&apos;&#x0D;&#x0A;- Original element: &apos;11_std_tag_test/src/com.example.stdtagtest&apos;&#x0D;&#x0A;- Renamed element: &apos;11_std_tag_test/src/com.example.stdtagtest.domain&apos;&#x0D;&#x0A;- Update references to refactored element&#x0D;&#x0A;- Update textual occurrences in comments and strings" description="Rename package &apos;com.example.stdtagtest&apos;" flags="589830" hierarchical="false" id="org.eclipse.jdt.ui.rename.package" input="/src&lt;com.example.stdtagtest" name="com.example.stdtagtest.domain" qualified="false" references="true" stamp="1559018346656" textual="false" version="1.0"/>
</session>