Tag Library Index 1.1.0
BUILDPATH_DIRTY|false
BUILDPATH_ENTRIES|33
JAR|false|false|D:/pro/JSP/apache-tomcat-9.0.16/lib/jasper.jar
JAR|false|false|D:/pro/JSP/apache-tomcat-9.0.16/lib/jaspic-api.jar
JAR|false|false|D:/pro/JSP/apache-tomcat-9.0.16/lib/tomcat-dbcp.jar
JAR|false|false|D:/pro/JSP/apache-tomcat-9.0.16/lib/tomcat-websocket.jar
JAR|false|false|D:/pro/JSP/apache-tomcat-9.0.16/lib/catalina-ant.jar
JAR|false|false|D:/pro/JSP/apache-tomcat-9.0.16/lib/tomcat-i18n-ru.jar
JAR|false|false|D:/pro/JSP/apache-tomcat-9.0.16/lib/tomcat-i18n-ja.jar
JAR|false|false|D:/pro/JSP/apache-tomcat-9.0.16/lib/tomcat-coyote.jar
JAR|false|false|D:/pro/JSP/apache-tomcat-9.0.16/lib/tomcat-jdbc.jar
JAR|false|false|D:/pro/JSP/apache-tomcat-9.0.16/lib/tomcat-i18n-ko.jar
JAR|false|false|C:/Program Files/Java/jdk-12.0.1/lib/jrt-fs.jar
JAR|false|false|D:/pro/JSP/apache-tomcat-9.0.16/lib/jasper-el.jar
JAR|false|false|D:/pro/JSP/apache-tomcat-9.0.16/lib/tomcat-i18n-zh-CN.jar
JAR|false|false|D:/pro/JSP/apache-tomcat-9.0.16/lib/catalina-ha.jar
JAR|false|false|D:/pro/JSP/apache-tomcat-9.0.16/lib/tomcat-i18n-de.jar
JAR|false|false|D:/pro/JSP/apache-tomcat-9.0.16/lib/servlet-api.jar
JAR|false|false|D:/pro/JSP/apache-tomcat-9.0.16/lib/jsp-api.jar
JAR|false|false|D:/pro/JSP/apache-tomcat-9.0.16/lib/catalina-tribes.jar
JAR|false|false|D:/pro/JSP/apache-tomcat-9.0.16/lib/tomcat-i18n-cs.jar
JAR|false|false|D:/pro/JSP/apache-tomcat-9.0.16/lib/tomcat-jni.jar
JAR|false|false|D:/pro/JSP/apache-tomcat-9.0.16/lib/tomcat-i18n-pt-BR.jar
JAR|false|false|D:/pro/JSP/apache-tomcat-9.0.16/lib/tomcat-util-scan.jar
JAR|false|false|D:/pro/JSP/apache-tomcat-9.0.16/lib/tomcat-i18n-es.jar
JAR|false|false|D:/pro/JSP/apache-tomcat-9.0.16/lib/ecj-4.9.jar
JAR|false|false|D:/pro/JSP/apache-tomcat-9.0.16/lib/websocket-api.jar
JAR|false|false|D:/pro/JSP/apache-tomcat-9.0.16/lib/tomcat-api.jar
JAR|false|false|D:/pro/JSP/apache-tomcat-9.0.16/lib/catalina-storeconfig.jar
JAR|false|false|D:/pro/JSP/apache-tomcat-9.0.16/lib/el-api.jar
JAR|false|false|D:/pro/JSP/apache-tomcat-9.0.16/lib/catalina.jar
JAR|false|false|D:/pro/JSP/apache-tomcat-9.0.16/lib/tomcat-i18n-fr.jar
JAR|false|false|D:/pro/JSP/apache-tomcat-9.0.16/lib/annotations-api.jar
JAR|false|false|D:/pro/JSP/apache-tomcat-9.0.16/lib/tomcat-util.jar
