127.0.0.1 - - [01/Jun/2019:23:41:53 +0900] "GET / HTTP/1.1" 404 1115
0:0:0:0:0:0:0:1 - - [01/Jun/2019:23:41:54 +0900] "GET /Hyeon_Toiec/index.jsp HTTP/1.1" 200 1862
0:0:0:0:0:0:0:1 - - [01/Jun/2019:23:41:59 +0900] "GET /Hyeon_Toiec/op/register HTTP/1.1" 500 3987
0:0:0:0:0:0:0:1 - - [01/Jun/2019:23:42:04 +0900] "GET /Hyeon_Toiec/op/teststart HTTP/1.1" 404 1086
0:0:0:0:0:0:0:1 - - [01/Jun/2019:23:42:06 +0900] "GET /Hyeon_Toiec/op/register HTTP/1.1" 404 1086
0:0:0:0:0:0:0:1 - - [01/Jun/2019:23:42:08 +0900] "GET /Hyeon_Toiec/op/register HTTP/1.1" 404 1086
0:0:0:0:0:0:0:1 - - [01/Jun/2019:23:42:10 +0900] "GET /Hyeon_Toiec/op/score HTTP/1.1" 404 1086
0:0:0:0:0:0:0:1 - - [01/Jun/2019:23:42:55 +0900] "GET /Hyeon_Toiec/index.jsp HTTP/1.1" 200 1859
0:0:0:0:0:0:0:1 - - [01/Jun/2019:23:42:57 +0900] "GET /Hyeon_Toiec/register HTTP/1.1" 404 1139
0:0:0:0:0:0:0:1 - - [01/Jun/2019:23:42:59 +0900] "GET /Hyeon_Toiec/op/teststart HTTP/1.1" 404 1086
0:0:0:0:0:0:0:1 - - [01/Jun/2019:23:43:00 +0900] "GET /Hyeon_Toiec/op/score HTTP/1.1" 404 1086
0:0:0:0:0:0:0:1 - - [01/Jun/2019:23:43:01 +0900] "GET /Hyeon_Toiec/register HTTP/1.1" 404 1139
0:0:0:0:0:0:0:1 - - [01/Jun/2019:23:43:11 +0900] "GET /Hyeon_Toiec/register HTTP/1.1" 404 1139
0:0:0:0:0:0:0:1 - - [01/Jun/2019:23:43:16 +0900] "GET /Hyeon_Toiec/register HTTP/1.1" 404 1139
0:0:0:0:0:0:0:1 - - [01/Jun/2019:23:43:17 +0900] "GET /Hyeon_Toiec/op/teststart HTTP/1.1" 404 1086
0:0:0:0:0:0:0:1 - - [01/Jun/2019:23:43:51 +0900] "GET /Hyeon_Toiec/register HTTP/1.1" 404 1139
127.0.0.1 - - [01/Jun/2019:23:44:37 +0900] "GET / HTTP/1.1" 404 1115
0:0:0:0:0:0:0:1 - - [01/Jun/2019:23:44:38 +0900] "GET /Hyeon_Toiec/index.jsp HTTP/1.1" 200 1859
0:0:0:0:0:0:0:1 - - [01/Jun/2019:23:44:39 +0900] "GET /Hyeon_Toiec/register HTTP/1.1" 404 1139
0:0:0:0:0:0:0:1 - - [01/Jun/2019:23:44:42 +0900] "GET /Hyeon_Toiec/op/teststart HTTP/1.1" 500 3987
127.0.0.1 - - [01/Jun/2019:23:59:50 +0900] "GET / HTTP/1.1" 404 1115
0:0:0:0:0:0:0:1 - - [01/Jun/2019:23:59:51 +0900] "GET /Hyeon_Toiec/index HTTP/1.1" 200 1859
0:0:0:0:0:0:0:1 - - [01/Jun/2019:23:59:52 +0900] "GET /Hyeon_Toiec/register HTTP/1.1" 404 1139
