127.0.0.1 - - [02/Jun/2019:00:00:15 +0900] "GET / HTTP/1.1" 404 1115
0:0:0:0:0:0:0:1 - - [02/Jun/2019:00:00:15 +0900] "GET /Hyeon_Toiec/index HTTP/1.1" 200 1859
0:0:0:0:0:0:0:1 - - [02/Jun/2019:00:00:16 +0900] "GET /Hyeon_Toiec/register HTTP/1.1" 404 1139
0:0:0:0:0:0:0:1 - - [02/Jun/2019:00:00:17 +0900] "GET /Hyeon_Toiec/op/teststart HTTP/1.1" 404 1147
0:0:0:0:0:0:0:1 - - [02/Jun/2019:00:00:19 +0900] "GET /Hyeon_Toiec/op/score HTTP/1.1" 404 1143
0:0:0:0:0:0:0:1 - - [02/Jun/2019:00:00:20 +0900] "GET /Hyeon_Toiec/register HTTP/1.1" 404 1139
127.0.0.1 - - [02/Jun/2019:00:00:42 +0900] "GET / HTTP/1.1" 404 1115
0:0:0:0:0:0:0:1 - - [02/Jun/2019:00:00:43 +0900] "GET /Hyeon_Toiec/index HTTP/1.1" 200 1859
0:0:0:0:0:0:0:1 - - [02/Jun/2019:00:00:44 +0900] "GET /Hyeon_Toiec/register HTTP/1.1" 404 1139
0:0:0:0:0:0:0:1 - - [02/Jun/2019:00:00:52 +0900] "GET /Hyeon_Toiec/register HTTP/1.1" 404 1139
127.0.0.1 - - [02/Jun/2019:00:01:02 +0900] "GET / HTTP/1.1" 404 1115
0:0:0:0:0:0:0:1 - - [02/Jun/2019:00:01:02 +0900] "GET /Hyeon_Toiec/index HTTP/1.1" 200 1859
0:0:0:0:0:0:0:1 - - [02/Jun/2019:00:01:03 +0900] "GET /Hyeon_Toiec/register HTTP/1.1" 404 1139
0:0:0:0:0:0:0:1 - - [02/Jun/2019:00:01:33 +0900] "GET /Hyeon_Toiec/index HTTP/1.1" 200 1862
0:0:0:0:0:0:0:1 - - [02/Jun/2019:00:01:34 +0900] "GET /Hyeon_Toiec/op/register HTTP/1.1" 404 1146
127.0.0.1 - - [02/Jun/2019:00:05:36 +0900] "GET / HTTP/1.1" 404 1115
0:0:0:0:0:0:0:1 - - [02/Jun/2019:00:05:36 +0900] "GET /Hyeon_Toiec/op/css/bootstrap.min.css HTTP/1.1" 200 1862
0:0:0:0:0:0:0:1 - - [02/Jun/2019:00:05:36 +0900] "GET /Hyeon_Toiec/op/* HTTP/1.1" 200 1862
0:0:0:0:0:0:0:1 - - [02/Jun/2019:00:05:36 +0900] "GET /Hyeon_Toiec/op/js/bootstrap.min.js HTTP/1.1" 200 1862
0:0:0:0:0:0:0:1 - - [02/Jun/2019:00:05:41 +0900] "GET /Hyeon_Toiec/op/op/register HTTP/1.1" 200 1862
0:0:0:0:0:0:0:1 - - [02/Jun/2019:00:05:41 +0900] "GET /Hyeon_Toiec/op/op/css/bootstrap.min.css HTTP/1.1" 200 1862
0:0:0:0:0:0:0:1 - - [02/Jun/2019:00:05:41 +0900] "GET /Hyeon_Toiec/op/op/js/bootstrap.min.js HTTP/1.1" 200 1862
0:0:0:0:0:0:0:1 - - [02/Jun/2019:00:05:41 +0900] "GET /Hyeon_Toiec/op/op/op/register HTTP/1.1" 200 1862
0:0:0:0:0:0:0:1 - - [02/Jun/2019:00:05:41 +0900] "GET /Hyeon_Toiec/op/op/op/js/bootstrap.min.js HTTP/1.1" 200 1862
0:0:0:0:0:0:0:1 - - [02/Jun/2019:00:05:41 +0900] "GET /Hyeon_Toiec/op/op/op/css/bootstrap.min.css HTTP/1.1" 200 1862
0:0:0:0:0:0:0:1 - - [02/Jun/2019:00:05:42 +0900] "GET /Hyeon_Toiec/op/op/op/op/score HTTP/1.1" 200 1862
0:0:0:0:0:0:0:1 - - [02/Jun/2019:00:05:42 +0900] "GET /Hyeon_Toiec/op/op/op/op/css/bootstrap.min.css HTTP/1.1" 200 1862
0:0:0:0:0:0:0:1 - - [02/Jun/2019:00:05:42 +0900] "GET /Hyeon_Toiec/op/op/op/op/js/bootstrap.min.js HTTP/1.1" 200 1862
0:0:0:0:0:0:0:1 - - [02/Jun/2019:00:05:42 +0900] "GET /Hyeon_Toiec/op/op/op/op/op/teststart HTTP/1.1" 200 1862
0:0:0:0:0:0:0:1 - - [02/Jun/2019:00:05:42 +0900] "GET /Hyeon_Toiec/op/op/op/op/op/js/bootstrap.min.js HTTP/1.1" 200 1862
0:0:0:0:0:0:0:1 - - [02/Jun/2019:00:05:42 +0900] "GET /Hyeon_Toiec/op/op/op/op/op/css/bootstrap.min.css HTTP/1.1" 200 1862
0:0:0:0:0:0:0:1 - - [02/Jun/2019:00:05:42 +0900] "GET /Hyeon_Toiec/op/op/op/op/op/op/teststart HTTP/1.1" 200 1862
0:0:0:0:0:0:0:1 - - [02/Jun/2019:00:05:42 +0900] "GET /Hyeon_Toiec/op/op/op/op/op/op/css/bootstrap.min.css HTTP/1.1" 200 1862
0:0:0:0:0:0:0:1 - - [02/Jun/2019:00:05:42 +0900] "GET /Hyeon_Toiec/op/op/op/op/op/op/js/bootstrap.min.js HTTP/1.1" 200 1862
0:0:0:0:0:0:0:1 - - [02/Jun/2019:00:05:43 +0900] "GET /Hyeon_Toiec/op/op/op/op/op/op/op/teststart HTTP/1.1" 200 1862
0:0:0:0:0:0:0:1 - - [02/Jun/2019:00:05:43 +0900] "GET /Hyeon_Toiec/op/op/op/op/op/op/op/css/bootstrap.min.css HTTP/1.1" 200 1862
0:0:0:0:0:0:0:1 - - [02/Jun/2019:00:05:43 +0900] "GET /Hyeon_Toiec/op/op/op/op/op/op/op/js/bootstrap.min.js HTTP/1.1" 200 1862
127.0.0.1 - - [02/Jun/2019:00:20:18 +0900] "GET / HTTP/1.1" 404 1115
0:0:0:0:0:0:0:1 - - [02/Jun/2019:00:20:19 +0900] "GET /Hyeon_Toiec/index HTTP/1.1" 200 1862
0:0:0:0:0:0:0:1 - - [02/Jun/2019:00:20:20 +0900] "GET /Hyeon_Toiec/op/register HTTP/1.1" 404 1146
0:0:0:0:0:0:0:1 - - [02/Jun/2019:00:20:21 +0900] "GET /Hyeon_Toiec/op/score HTTP/1.1" 404 1143
0:0:0:0:0:0:0:1 - - [02/Jun/2019:00:20:22 +0900] "GET /Hyeon_Toiec/op/teststart HTTP/1.1" 404 1147
0:0:0:0:0:0:0:1 - - [02/Jun/2019:00:20:23 +0900] "GET /Hyeon_Toiec/op/register HTTP/1.1" 404 1146
127.0.0.1 - - [02/Jun/2019:00:38:35 +0900] "GET / HTTP/1.1" 404 1115
0:0:0:0:0:0:0:1 - - [02/Jun/2019:00:38:35 +0900] "GET /Hyeon_Toiec/index HTTP/1.1" 200 1862
0:0:0:0:0:0:0:1 - - [02/Jun/2019:00:38:36 +0900] "GET /Hyeon_Toiec/op/register HTTP/1.1" 404 1146
127.0.0.1 - - [02/Jun/2019:00:44:38 +0900] "GET / HTTP/1.1" 404 1115
0:0:0:0:0:0:0:1 - - [02/Jun/2019:00:44:38 +0900] "GET /Hyeon_Toiec/index HTTP/1.1" 200 1862
0:0:0:0:0:0:0:1 - - [02/Jun/2019:00:44:39 +0900] "GET /Hyeon_Toiec/op/register HTTP/1.1" 200 -
0:0:0:0:0:0:0:1 - - [02/Jun/2019:00:44:45 +0900] "GET /Hyeon_Toiec/op/teststart HTTP/1.1" 200 -
0:0:0:0:0:0:0:1 - - [02/Jun/2019:00:44:47 +0900] "GET /Hyeon_Toiec/op/score HTTP/1.1" 200 -
0:0:0:0:0:0:0:1 - - [02/Jun/2019:00:44:49 +0900] "GET /Hyeon_Toiec/op/register HTTP/1.1" 200 -
127.0.0.1 - - [02/Jun/2019:00:49:10 +0900] "GET / HTTP/1.1" 404 1115
0:0:0:0:0:0:0:1 - - [02/Jun/2019:00:49:10 +0900] "GET /Hyeon_Toiec/index HTTP/1.1" 200 1862
0:0:0:0:0:0:0:1 - - [02/Jun/2019:00:49:11 +0900] "GET /Hyeon_Toiec/op/register HTTP/1.1" 200 -
0:0:0:0:0:0:0:1 - - [02/Jun/2019:00:49:18 +0900] "GET /Hyeon_Toiec/op/register HTTP/1.1" 200 -
0:0:0:0:0:0:0:1 - - [02/Jun/2019:00:49:20 +0900] "GET /Hyeon_Toiec/op/teststart HTTP/1.1" 200 -
0:0:0:0:0:0:0:1 - - [02/Jun/2019:00:49:21 +0900] "GET /Hyeon_Toiec/op/score HTTP/1.1" 200 -
0:0:0:0:0:0:0:1 - - [02/Jun/2019:00:49:23 +0900] "GET /Hyeon_Toiec/op/register HTTP/1.1" 200 -
0:0:0:0:0:0:0:1 - - [02/Jun/2019:00:49:25 +0900] "GET /Hyeon_Toiec/op/teststart HTTP/1.1" 200 -
0:0:0:0:0:0:0:1 - - [02/Jun/2019:00:49:26 +0900] "GET /Hyeon_Toiec/op/register HTTP/1.1" 200 -
127.0.0.1 - - [02/Jun/2019:00:57:31 +0900] "GET / HTTP/1.1" 404 1115
0:0:0:0:0:0:0:1 - - [02/Jun/2019:00:57:31 +0900] "GET /Hyeon_Toiec/index.jsp HTTP/1.1" 200 1862
0:0:0:0:0:0:0:1 - - [02/Jun/2019:00:57:32 +0900] "GET /Hyeon_Toiec/op/register HTTP/1.1" 200 -
0:0:0:0:0:0:0:1 - - [02/Jun/2019:00:57:35 +0900] "GET /Hyeon_Toiec/op/teststart HTTP/1.1" 200 -
0:0:0:0:0:0:0:1 - - [02/Jun/2019:00:57:36 +0900] "GET /Hyeon_Toiec/op/score HTTP/1.1" 200 -
127.0.0.1 - - [02/Jun/2019:00:58:11 +0900] "GET / HTTP/1.1" 404 1115
0:0:0:0:0:0:0:1 - - [02/Jun/2019:00:58:12 +0900] "GET /Hyeon_Toiec/index.jsp HTTP/1.1" 200 1862
0:0:0:0:0:0:0:1 - - [02/Jun/2019:00:58:12 +0900] "GET /Hyeon_Toiec/op/register HTTP/1.1" 404 1146
0:0:0:0:0:0:0:1 - - [02/Jun/2019:00:58:16 +0900] "GET /Hyeon_Toiec/op/teststart HTTP/1.1" 404 1147
0:0:0:0:0:0:0:1 - - [02/Jun/2019:00:58:17 +0900] "GET /Hyeon_Toiec/op/score HTTP/1.1" 404 1143
0:0:0:0:0:0:0:1 - - [02/Jun/2019:00:58:18 +0900] "GET /Hyeon_Toiec/op/teststart HTTP/1.1" 404 1147
0:0:0:0:0:0:0:1 - - [02/Jun/2019:00:58:19 +0900] "GET /Hyeon_Toiec/op/register HTTP/1.1" 404 1146
0:0:0:0:0:0:0:1 - - [02/Jun/2019:00:58:21 +0900] "GET /Hyeon_Toiec/op/teststart HTTP/1.1" 404 1147
0:0:0:0:0:0:0:1 - - [02/Jun/2019:00:58:22 +0900] "GET /Hyeon_Toiec/op/register HTTP/1.1" 404 1146
127.0.0.1 - - [02/Jun/2019:00:59:02 +0900] "GET / HTTP/1.1" 404 1115
0:0:0:0:0:0:0:1 - - [02/Jun/2019:00:59:03 +0900] "GET /Hyeon_Toiec/index.jsp HTTP/1.1" 200 1862
0:0:0:0:0:0:0:1 - - [02/Jun/2019:00:59:04 +0900] "GET /Hyeon_Toiec/op/register HTTP/1.1" 404 1146
127.0.0.1 - - [02/Jun/2019:01:04:34 +0900] "GET / HTTP/1.1" 404 1115
0:0:0:0:0:0:0:1 - - [02/Jun/2019:01:04:35 +0900] "GET /Hyeon_Toiec/index.jsp HTTP/1.1" 200 1862
0:0:0:0:0:0:0:1 - - [02/Jun/2019:01:04:53 +0900] "GET /Hyeon_Toiec/op/register HTTP/1.1" 200 -
0:0:0:0:0:0:0:1 - - [02/Jun/2019:01:04:59 +0900] "GET /Hyeon_Toiec/op/register HTTP/1.1" 200 -
0:0:0:0:0:0:0:1 - - [02/Jun/2019:01:05:05 +0900] "GET /Hyeon_Toiec/op/register.do HTTP/1.1" 200 -
0:0:0:0:0:0:0:1 - - [02/Jun/2019:01:05:13 +0900] "GET /Hyeon_Toiec/op/teststart HTTP/1.1" 200 -
0:0:0:0:0:0:0:1 - - [02/Jun/2019:01:05:15 +0900] "GET /Hyeon_Toiec/op/score HTTP/1.1" 200 -
0:0:0:0:0:0:0:1 - - [02/Jun/2019:01:05:16 +0900] "GET /Hyeon_Toiec/op/teststart HTTP/1.1" 200 -
0:0:0:0:0:0:0:1 - - [02/Jun/2019:01:05:18 +0900] "GET /Hyeon_Toiec/op/register HTTP/1.1" 200 -
127.0.0.1 - - [02/Jun/2019:01:06:38 +0900] "GET / HTTP/1.1" 404 1115
0:0:0:0:0:0:0:1 - - [02/Jun/2019:01:06:39 +0900] "GET /Hyeon_Toiec/index.jsp HTTP/1.1" 200 1862
0:0:0:0:0:0:0:1 - - [02/Jun/2019:01:06:40 +0900] "GET /Hyeon_Toiec/op/register HTTP/1.1" 200 -
127.0.0.1 - - [02/Jun/2019:04:22:47 +0900] "GET / HTTP/1.1" 404 1115
0:0:0:0:0:0:0:1 - - [02/Jun/2019:04:22:49 +0900] "GET /Hyeon_Toeic/css/bootstrap.min.css HTTP/1.1" 200 117150
0:0:0:0:0:0:0:1 - - [02/Jun/2019:04:22:49 +0900] "GET /Hyeon_Toeic/index.jsp HTTP/1.1" 200 1857
0:0:0:0:0:0:0:1 - - [02/Jun/2019:04:22:49 +0900] "GET /Hyeon_Toeic/resource/toiec.jpg HTTP/1.1" 404 1153
0:0:0:0:0:0:0:1 - - [02/Jun/2019:04:22:49 +0900] "GET /Hyeon_Toeic/js/bootstrap.min.js HTTP/1.1" 200 35452
0:0:0:0:0:0:0:1 - - [02/Jun/2019:04:23:17 +0900] "GET /Hyeon_Toeic/op/register HTTP/1.1" 404 1146
127.0.0.1 - - [02/Jun/2019:04:38:37 +0900] "GET / HTTP/1.1" 404 1115
0:0:0:0:0:0:0:1 - - [02/Jun/2019:04:38:38 +0900] "GET /Hyeon_Toeic/index.jsp HTTP/1.1" 200 1857
0:0:0:0:0:0:0:1 - - [02/Jun/2019:04:38:38 +0900] "GET /Hyeon_Toeic/resource/toeic.jpg HTTP/1.1" 404 1153
0:0:0:0:0:0:0:1 - - [02/Jun/2019:04:38:40 +0900] "GET /Hyeon_Toeic/op/register HTTP/1.1" 200 -
127.0.0.1 - - [02/Jun/2019:04:45:43 +0900] "GET / HTTP/1.1" 404 1115
0:0:0:0:0:0:0:1 - - [02/Jun/2019:04:45:44 +0900] "GET /Hyeon_Toeic/index.jsp HTTP/1.1" 200 1857
0:0:0:0:0:0:0:1 - - [02/Jun/2019:04:45:44 +0900] "GET /Hyeon_Toeic/resource/toeic.jpg HTTP/1.1" 404 1153
0:0:0:0:0:0:0:1 - - [02/Jun/2019:04:45:45 +0900] "GET /Hyeon_Toeic/op/register HTTP/1.1" 200 -
0:0:0:0:0:0:0:1 - - [02/Jun/2019:04:45:48 +0900] "GET /Hyeon_Toeic/op/test HTTP/1.1" 200 -
0:0:0:0:0:0:0:1 - - [02/Jun/2019:04:45:50 +0900] "GET /Hyeon_Toeic/op/score HTTP/1.1" 200 -
0:0:0:0:0:0:0:1 - - [02/Jun/2019:04:50:16 +0900] "GET /Hyeon_Toeic/index.jsp HTTP/1.1" 200 1815
0:0:0:0:0:0:0:1 - - [02/Jun/2019:04:50:16 +0900] "GET /Hyeon_Toeic/resource/toeic.jpg HTTP/1.1" 404 1153
0:0:0:0:0:0:0:1 - - [02/Jun/2019:04:50:17 +0900] "GET /Hyeon_Toeic/op/register HTTP/1.1" 200 -
0:0:0:0:0:0:0:1 - - [02/Jun/2019:04:50:30 +0900] "GET /Hyeon_Toeic/index.jsp HTTP/1.1" 200 1772
0:0:0:0:0:0:0:1 - - [02/Jun/2019:04:50:30 +0900] "GET /Hyeon_Toeic/resource/toeic.jpg HTTP/1.1" 404 1153
0:0:0:0:0:0:0:1 - - [02/Jun/2019:04:50:32 +0900] "GET /Hyeon_Toeic/op/register HTTP/1.1" 200 -
0:0:0:0:0:0:0:1 - - [02/Jun/2019:04:50:33 +0900] "GET /Hyeon_Toeic/op/register HTTP/1.1" 200 -
0:0:0:0:0:0:0:1 - - [02/Jun/2019:04:50:41 +0900] "GET /Hyeon_Toeic/index.jsp HTTP/1.1" 200 1815
0:0:0:0:0:0:0:1 - - [02/Jun/2019:04:50:41 +0900] "GET /Hyeon_Toeic/resource/toeic.jpg HTTP/1.1" 404 1153
0:0:0:0:0:0:0:1 - - [02/Jun/2019:04:51:02 +0900] "GET /Hyeon_Toeic/index.jsp HTTP/1.1" 200 1815
0:0:0:0:0:0:0:1 - - [02/Jun/2019:04:51:02 +0900] "GET /Hyeon_Toeic/resource/toiec.jpg HTTP/1.1" 404 1153
0:0:0:0:0:0:0:1 - - [02/Jun/2019:04:51:03 +0900] "GET /Hyeon_Toeic/index.jsp HTTP/1.1" 200 1815
0:0:0:0:0:0:0:1 - - [02/Jun/2019:04:51:03 +0900] "GET /Hyeon_Toeic/resource/toiec.jpg HTTP/1.1" 404 1153
0:0:0:0:0:0:0:1 - - [02/Jun/2019:04:51:03 +0900] "GET /Hyeon_Toeic/index.jsp HTTP/1.1" 200 1815
0:0:0:0:0:0:0:1 - - [02/Jun/2019:04:51:03 +0900] "GET /Hyeon_Toeic/resource/toiec.jpg HTTP/1.1" 404 1153
0:0:0:0:0:0:0:1 - - [02/Jun/2019:04:51:07 +0900] "GET /Hyeon_Toeic/index.jsp HTTP/1.1" 200 1815
0:0:0:0:0:0:0:1 - - [02/Jun/2019:04:51:07 +0900] "GET /Hyeon_Toeic/resource/toiec.jpg HTTP/1.1" 404 1153
0:0:0:0:0:0:0:1 - - [02/Jun/2019:04:51:28 +0900] "GET /Hyeon_Toeic/index.jsp HTTP/1.1" 200 1815
0:0:0:0:0:0:0:1 - - [02/Jun/2019:04:51:28 +0900] "GET /Hyeon_Toeic/resource/toiec.jpg HTTP/1.1" 200 4009
0:0:0:0:0:0:0:1 - - [02/Jun/2019:04:52:41 +0900] "GET /Hyeon_Toeic/op/register HTTP/1.1" 200 -
0:0:0:0:0:0:0:1 - - [02/Jun/2019:04:53:10 +0900] "GET /Hyeon_Toeic/op/register HTTP/1.1" 200 -
0:0:0:0:0:0:0:1 - - [02/Jun/2019:04:55:17 +0900] "GET /Hyeon_Toeic/op/register HTTP/1.1" 200 -
0:0:0:0:0:0:0:1 - - [02/Jun/2019:04:55:46 +0900] "GET /Hyeon_Toeic/index.jsp HTTP/1.1" 200 1687
0:0:0:0:0:0:0:1 - - [02/Jun/2019:04:55:48 +0900] "GET /Hyeon_Toeic/op/register HTTP/1.1" 200 -
0:0:0:0:0:0:0:1 - - [02/Jun/2019:04:56:05 +0900] "GET /Hyeon_Toeic/index.jsp HTTP/1.1" 200 1560
0:0:0:0:0:0:0:1 - - [02/Jun/2019:04:56:06 +0900] "GET /Hyeon_Toeic/op/test HTTP/1.1" 200 -
0:0:0:0:0:0:0:1 - - [02/Jun/2019:04:56:07 +0900] "GET /Hyeon_Toeic/op/register HTTP/1.1" 200 -
127.0.0.1 - - [02/Jun/2019:12:47:32 +0900] "GET / HTTP/1.1" 404 1115
0:0:0:0:0:0:0:1 - - [02/Jun/2019:12:47:34 +0900] "GET /10_book_manager/resources/books.jpg HTTP/1.1" 200 121375
0:0:0:0:0:0:0:1 - - [02/Jun/2019:12:47:34 +0900] "GET /10_book_manager/start.jsp HTTP/1.1" 200 1434
0:0:0:0:0:0:0:1 - - [02/Jun/2019:12:47:34 +0900] "GET /favicon.ico HTTP/1.1" 404 1126
0:0:0:0:0:0:0:1 - - [02/Jun/2019:12:47:44 +0900] "GET /10_book_manager/op/search HTTP/1.1" 200 1453
0:0:0:0:0:0:0:1 - - [02/Jun/2019:12:47:50 +0900] "GET /10_book_manager/op/search HTTP/1.1" 200 1453
127.0.0.1 - - [02/Jun/2019:12:56:26 +0900] "GET / HTTP/1.1" 404 1115
0:0:0:0:0:0:0:1 - - [02/Jun/2019:12:56:27 +0900] "GET /Hyeon_Toeic/index.jsp HTTP/1.1" 200 1563
0:0:0:0:0:0:0:1 - - [02/Jun/2019:12:56:28 +0900] "GET /op/register HTTP/1.1" 404 1130
0:0:0:0:0:0:0:1 - - [02/Jun/2019:12:56:34 +0900] "GET /op/register HTTP/1.1" 404 1130
0:0:0:0:0:0:0:1 - - [02/Jun/2019:12:56:43 +0900] "GET /Hyeon_Toeic/index.jsp HTTP/1.1" 200 1562
0:0:0:0:0:0:0:1 - - [02/Jun/2019:12:56:44 +0900] "GET /Hyeon_Toeic/op/register HTTP/1.1" 200 -
0:0:0:0:0:0:0:1 - - [02/Jun/2019:12:56:52 +0900] "GET /Hyeon_Toeic/index.jsp HTTP/1.1" 200 1560
0:0:0:0:0:0:0:1 - - [02/Jun/2019:12:56:53 +0900] "GET /Hyeon_Toeic/op/register HTTP/1.1" 200 -
0:0:0:0:0:0:0:1 - - [02/Jun/2019:12:57:35 +0900] "GET /Hyeon_Toeic/op/test HTTP/1.1" 200 -
0:0:0:0:0:0:0:1 - - [02/Jun/2019:12:57:38 +0900] "GET /Hyeon_Toeic/op/score HTTP/1.1" 200 -
0:0:0:0:0:0:0:1 - - [02/Jun/2019:12:57:38 +0900] "GET /Hyeon_Toeic/op/score HTTP/1.1" 200 -
0:0:0:0:0:0:0:1 - - [02/Jun/2019:12:57:41 +0900] "GET /Hyeon_Toeic/op/register HTTP/1.1" 200 -
127.0.0.1 - - [02/Jun/2019:12:58:25 +0900] "GET / HTTP/1.1" 404 1115
0:0:0:0:0:0:0:1 - - [02/Jun/2019:12:58:26 +0900] "GET /Hyeon_Toeic/index.jsp HTTP/1.1" 200 1560
0:0:0:0:0:0:0:1 - - [02/Jun/2019:12:58:28 +0900] "GET /Hyeon_Toeic/op/register HTTP/1.1" 200 -
0:0:0:0:0:0:0:1 - - [02/Jun/2019:12:58:31 +0900] "GET /Hyeon_Toeic/op/register HTTP/1.1" 200 -
127.0.0.1 - - [02/Jun/2019:13:01:44 +0900] "GET / HTTP/1.1" 404 1115
0:0:0:0:0:0:0:1 - - [02/Jun/2019:13:01:44 +0900] "GET /Hyeon_Toeic/index.jsp HTTP/1.1" 200 -
127.0.0.1 - - [02/Jun/2019:15:05:56 +0900] "GET / HTTP/1.1" 404 1115
0:0:0:0:0:0:0:1 - - [02/Jun/2019:15:05:57 +0900] "GET /Hyeon_Toeic/index.jsp HTTP/1.1" 500 1591
127.0.0.1 - - [02/Jun/2019:15:40:36 +0900] "GET / HTTP/1.1" 404 1115
0:0:0:0:0:0:0:1 - - [02/Jun/2019:15:40:36 +0900] "GET /Hyeon_Toeic/index.jsp HTTP/1.1" 500 1591
127.0.0.1 - - [02/Jun/2019:15:41:30 +0900] "GET / HTTP/1.1" 404 1115
0:0:0:0:0:0:0:1 - - [02/Jun/2019:15:41:31 +0900] "GET /Hyeon_Toeic/index.jsp HTTP/1.1" 500 1591
127.0.0.1 - - [02/Jun/2019:15:42:51 +0900] "GET / HTTP/1.1" 404 1115
0:0:0:0:0:0:0:1 - - [02/Jun/2019:15:42:52 +0900] "GET /Hyeon_Toeic/index.jsp HTTP/1.1" 500 1591
0:0:0:0:0:0:0:1 - - [02/Jun/2019:15:43:39 +0900] "GET /Hyeon_Toeic/index.jsp HTTP/1.1" 500 1591
127.0.0.1 - - [02/Jun/2019:15:46:17 +0900] "GET / HTTP/1.1" 404 1115
0:0:0:0:0:0:0:1 - - [02/Jun/2019:15:46:19 +0900] "GET /Hyeon_Toeic/index.jsp HTTP/1.1" 200 1563
0:0:0:0:0:0:0:1 - - [02/Jun/2019:15:46:20 +0900] "GET /Hyeon_Toeic/op/register HTTP/1.1" 200 2945
0:0:0:0:0:0:0:1 - - [02/Jun/2019:15:46:20 +0900] "GET /Hyeon_Toeic/op/js/bootstrap.min.js HTTP/1.1" 200 1170
0:0:0:0:0:0:0:1 - - [02/Jun/2019:15:46:20 +0900] "GET /Hyeon_Toeic/op/css/bootstrap.min.css HTTP/1.1" 200 1170
0:0:0:0:0:0:0:1 - - [02/Jun/2019:15:47:15 +0900] "GET /Hyeon_Toeic/register.jsp HTTP/1.1" 200 2940
0:0:0:0:0:0:0:1 - - [02/Jun/2019:15:50:49 +0900] "GET /Hyeon_Toeic/index.jsp HTTP/1.1" 200 1585
0:0:0:0:0:0:0:1 - - [02/Jun/2019:15:50:49 +0900] "GET /Hyeon_Toeic/resource/css/bootstrap.min.css HTTP/1.1" 200 117150
0:0:0:0:0:0:0:1 - - [02/Jun/2019:15:50:49 +0900] "GET /Hyeon_Toeic/resource/js/bootstrap.min.js HTTP/1.1" 200 35452
0:0:0:0:0:0:0:1 - - [02/Jun/2019:15:50:53 +0900] "GET /Hyeon_Toeic/op/register HTTP/1.1" 200 2962
0:0:0:0:0:0:0:1 - - [02/Jun/2019:15:50:53 +0900] "GET /Hyeon_Toeic/op/resource/css/bootstrap.min.css HTTP/1.1" 200 1170
0:0:0:0:0:0:0:1 - - [02/Jun/2019:15:50:53 +0900] "GET /Hyeon_Toeic/op/js/bootstrap.min.js HTTP/1.1" 200 1170
0:0:0:0:0:0:0:1 - - [02/Jun/2019:15:50:53 +0900] "GET /Hyeon_Toeic/op/resource/js/bootstrap.min.js HTTP/1.1" 200 1170
0:0:0:0:0:0:0:1 - - [02/Jun/2019:15:50:53 +0900] "GET /Hyeon_Toeic/op/css/bootstrap.min.css HTTP/1.1" 200 1170
0:0:0:0:0:0:0:1 - - [02/Jun/2019:15:52:22 +0900] "GET /Hyeon_Toeic/index.jsp HTTP/1.1" 200 1583
0:0:0:0:0:0:0:1 - - [02/Jun/2019:15:52:24 +0900] "GET /Hyeon_Toeic/op/register HTTP/1.1" 200 2957
0:0:0:0:0:0:0:1 - - [02/Jun/2019:15:52:24 +0900] "GET /Hyeon_Toeic/op/resource/css/bootstrap.min.css HTTP/1.1" 200 1170
0:0:0:0:0:0:0:1 - - [02/Jun/2019:15:52:24 +0900] "GET /Hyeon_Toeic/op/css/bootstrap.min.css HTTP/1.1" 200 1170
0:0:0:0:0:0:0:1 - - [02/Jun/2019:15:52:24 +0900] "GET /Hyeon_Toeic/op/resource/js/bootstrap.min.js HTTP/1.1" 200 1170
0:0:0:0:0:0:0:1 - - [02/Jun/2019:15:52:24 +0900] "GET /Hyeon_Toeic/op/js/bootstrap.min.js HTTP/1.1" 200 1170
0:0:0:0:0:0:0:1 - - [02/Jun/2019:15:53:49 +0900] "GET /Hyeon_Toeic/index.jsp HTTP/1.1" 200 1605
0:0:0:0:0:0:0:1 - - [02/Jun/2019:15:53:50 +0900] "GET /Hyeon_Toeic/op/register HTTP/1.1" 200 2979
0:0:0:0:0:0:0:1 - - [02/Jun/2019:15:53:50 +0900] "GET /Hyeon_Toeic/op/css/bootstrap.min.css HTTP/1.1" 200 1170
0:0:0:0:0:0:0:1 - - [02/Jun/2019:15:53:50 +0900] "GET /Hyeon_Toeic/op/js/bootstrap.min.js HTTP/1.1" 200 1170
127.0.0.1 - - [02/Jun/2019:16:04:54 +0900] "GET / HTTP/1.1" 404 1115
0:0:0:0:0:0:0:1 - - [02/Jun/2019:16:04:55 +0900] "GET /Hyeon_Toeic/index.jsp HTTP/1.1" 200 1605
0:0:0:0:0:0:0:1 - - [02/Jun/2019:16:04:57 +0900] "GET /Hyeon_Toeic/op/register HTTP/1.1" 200 2979
0:0:0:0:0:0:0:1 - - [02/Jun/2019:16:04:57 +0900] "GET /Hyeon_Toeic/op/css/bootstrap.min.css HTTP/1.1" 200 1170
0:0:0:0:0:0:0:1 - - [02/Jun/2019:16:04:57 +0900] "GET /Hyeon_Toeic/op/js/bootstrap.min.js HTTP/1.1" 200 1170
127.0.0.1 - - [02/Jun/2019:16:31:49 +0900] "GET / HTTP/1.1" 404 1115
0:0:0:0:0:0:0:1 - - [02/Jun/2019:16:31:49 +0900] "GET /Hyeon_Toeic/index.jsp HTTP/1.1" 404 1140
0:0:0:0:0:0:0:1 - - [02/Jun/2019:16:31:53 +0900] "GET /Hyeon_Toeic/index.jsp HTTP/1.1" 404 1140
0:0:0:0:0:0:0:1 - - [02/Jun/2019:16:31:58 +0900] "GET /Hyeon_Toeic/index.jsp HTTP/1.1" 404 1140
127.0.0.1 - - [02/Jun/2019:16:32:09 +0900] "GET / HTTP/1.1" 404 1115
0:0:0:0:0:0:0:1 - - [02/Jun/2019:16:32:10 +0900] "GET /Hyeon_Toeic/index.jsp HTTP/1.1" 404 1140
127.0.0.1 - - [02/Jun/2019:16:33:58 +0900] "GET / HTTP/1.1" 404 1115
0:0:0:0:0:0:0:1 - - [02/Jun/2019:16:33:59 +0900] "GET /Hyeon_Toeic/index.jsp HTTP/1.1" 200 1602
0:0:0:0:0:0:0:1 - - [02/Jun/2019:16:34:01 +0900] "GET /Hyeon_Toeic/op/register HTTP/1.1" 200 2979
0:0:0:0:0:0:0:1 - - [02/Jun/2019:16:34:01 +0900] "GET /Hyeon_Toeic/op/css/bootstrap.min.css HTTP/1.1" 200 1170
0:0:0:0:0:0:0:1 - - [02/Jun/2019:16:34:01 +0900] "GET /Hyeon_Toeic/op/js/bootstrap.min.js HTTP/1.1" 200 1170
0:0:0:0:0:0:0:1 - - [02/Jun/2019:16:35:39 +0900] "GET /Hyeon_Toeic/op/register HTTP/1.1" 200 2998
0:0:0:0:0:0:0:1 - - [02/Jun/2019:16:35:39 +0900] "GET /Hyeon_Toeic/op/css/bootstrap.min.css HTTP/1.1" 200 1170
0:0:0:0:0:0:0:1 - - [02/Jun/2019:16:35:39 +0900] "GET /Hyeon_Toeic/op/js/bootstrap.min.js HTTP/1.1" 200 1170
127.0.0.1 - - [02/Jun/2019:16:52:14 +0900] "GET / HTTP/1.1" 404 1115
0:0:0:0:0:0:0:1 - - [02/Jun/2019:16:52:15 +0900] "GET /Hyeon_Toeic/index.jsp HTTP/1.1" 200 1602
0:0:0:0:0:0:0:1 - - [02/Jun/2019:16:52:16 +0900] "GET /Hyeon_Toeic/op/register HTTP/1.1" 200 3068
0:0:0:0:0:0:0:1 - - [02/Jun/2019:16:52:16 +0900] "GET /Hyeon_Toeic/op/js/bootstrap.min.js HTTP/1.1" 200 1170
0:0:0:0:0:0:0:1 - - [02/Jun/2019:16:52:16 +0900] "GET /Hyeon_Toeic/op/css/bootstrap.min.css HTTP/1.1" 200 1170
0:0:0:0:0:0:0:1 - - [02/Jun/2019:16:52:52 +0900] "POST /Hyeon_Toeic/op/register.do HTTP/1.1" 500 1675
127.0.0.1 - - [02/Jun/2019:16:56:49 +0900] "GET / HTTP/1.1" 404 1115
0:0:0:0:0:0:0:1 - - [02/Jun/2019:16:56:49 +0900] "GET /Hyeon_Toeic/index.jsp HTTP/1.1" 404 1140
0:0:0:0:0:0:0:1 - - [02/Jun/2019:16:56:59 +0900] "GET /Hyeon_Toeic/index.jsp HTTP/1.1" 404 1140
127.0.0.1 - - [02/Jun/2019:16:58:00 +0900] "GET / HTTP/1.1" 404 1115
0:0:0:0:0:0:0:1 - - [02/Jun/2019:16:58:00 +0900] "GET /Hyeon_Toeic/index.jsp HTTP/1.1" 200 1602
0:0:0:0:0:0:0:1 - - [02/Jun/2019:16:58:01 +0900] "GET /Hyeon_Toeic/op/register HTTP/1.1" 200 3068
0:0:0:0:0:0:0:1 - - [02/Jun/2019:16:58:02 +0900] "GET /Hyeon_Toeic/op/css/bootstrap.min.css HTTP/1.1" 200 1170
0:0:0:0:0:0:0:1 - - [02/Jun/2019:16:58:02 +0900] "GET /Hyeon_Toeic/op/js/bootstrap.min.js HTTP/1.1" 200 1170
0:0:0:0:0:0:0:1 - - [02/Jun/2019:16:58:18 +0900] "POST /Hyeon_Toeic/op/register.do HTTP/1.1" 500 1675
127.0.0.1 - - [02/Jun/2019:17:15:29 +0900] "GET / HTTP/1.1" 404 1115
0:0:0:0:0:0:0:1 - - [02/Jun/2019:17:15:30 +0900] "GET /Hyeon_Toeic/index.jsp HTTP/1.1" 200 1602
0:0:0:0:0:0:0:1 - - [02/Jun/2019:17:15:31 +0900] "GET /Hyeon_Toeic/op/register HTTP/1.1" 200 3068
0:0:0:0:0:0:0:1 - - [02/Jun/2019:17:15:31 +0900] "GET /Hyeon_Toeic/op/css/bootstrap.min.css HTTP/1.1" 200 1170
0:0:0:0:0:0:0:1 - - [02/Jun/2019:17:15:31 +0900] "GET /Hyeon_Toeic/op/js/bootstrap.min.js HTTP/1.1" 200 1170
0:0:0:0:0:0:0:1 - - [02/Jun/2019:17:15:45 +0900] "POST /Hyeon_Toeic/op/register.do HTTP/1.1" 200 1156
0:0:0:0:0:0:0:1 - - [02/Jun/2019:17:15:45 +0900] "GET /Hyeon_Toeic/op/css/bootstrap.min.css HTTP/1.1" 200 1170
0:0:0:0:0:0:0:1 - - [02/Jun/2019:17:15:45 +0900] "GET /Hyeon_Toeic/op/js/bootstrap.min.js HTTP/1.1" 200 1170
127.0.0.1 - - [02/Jun/2019:17:26:38 +0900] "GET / HTTP/1.1" 404 1115
0:0:0:0:0:0:0:1 - - [02/Jun/2019:17:26:39 +0900] "GET /Hyeon_Toeic/index.jsp HTTP/1.1" 200 1602
0:0:0:0:0:0:0:1 - - [02/Jun/2019:17:26:41 +0900] "GET /Hyeon_Toeic/op/register HTTP/1.1" 200 3068
0:0:0:0:0:0:0:1 - - [02/Jun/2019:17:26:41 +0900] "GET /Hyeon_Toeic/op/js/bootstrap.min.js HTTP/1.1" 200 1170
0:0:0:0:0:0:0:1 - - [02/Jun/2019:17:26:41 +0900] "GET /Hyeon_Toeic/op/css/bootstrap.min.css HTTP/1.1" 200 1170
0:0:0:0:0:0:0:1 - - [02/Jun/2019:17:26:54 +0900] "POST /Hyeon_Toeic/op/register.do HTTP/1.1" 200 1220
0:0:0:0:0:0:0:1 - - [02/Jun/2019:17:26:54 +0900] "GET /Hyeon_Toeic/op/css/bootstrap.min.css HTTP/1.1" 200 1170
0:0:0:0:0:0:0:1 - - [02/Jun/2019:17:26:54 +0900] "GET /Hyeon_Toeic/op/js/bootstrap.min.js HTTP/1.1" 200 1170
0:0:0:0:0:0:0:1 - - [02/Jun/2019:17:26:58 +0900] "GET /Hyeon_Toeic/op/index.jsp HTTP/1.1" 200 1170
0:0:0:0:0:0:0:1 - - [02/Jun/2019:17:26:58 +0900] "GET /Hyeon_Toeic/op/js/bootstrap.min.js HTTP/1.1" 200 1170
0:0:0:0:0:0:0:1 - - [02/Jun/2019:17:26:58 +0900] "GET /Hyeon_Toeic/op/css/bootstrap.min.css HTTP/1.1" 200 1170
0:0:0:0:0:0:0:1 - - [02/Jun/2019:17:27:00 +0900] "GET /Hyeon_Toeic/index.jsp HTTP/1.1" 200 1602
127.0.0.1 - - [02/Jun/2019:21:25:09 +0900] "GET / HTTP/1.1" 404 1115
0:0:0:0:0:0:0:1 - - [02/Jun/2019:21:25:11 +0900] "GET /Hyeon_Toeic/notlogin.jsp HTTP/1.1" 200 1219
0:0:0:0:0:0:0:1 - - [02/Jun/2019:21:25:11 +0900] "GET /Hyeon_Toeic/resource/toiec.jpg HTTP/1.1" 304 -
0:0:0:0:0:0:0:1 - - [02/Jun/2019:21:25:11 +0900] "GET /favicon.ico HTTP/1.1" 404 1126
0:0:0:0:0:0:0:1 - - [02/Jun/2019:21:25:54 +0900] "GET /Hyeon_Toeic/notlogin.jsp HTTP/1.1" 200 1167
0:0:0:0:0:0:0:1 - - [02/Jun/2019:21:25:54 +0900] "GET /Hyeon_Toeic/notlogin.jsp HTTP/1.1" 200 1167
0:0:0:0:0:0:0:1 - - [02/Jun/2019:21:26:03 +0900] "GET /Hyeon_Toeic/notlogin.jsp HTTP/1.1" 200 1166
0:0:0:0:0:0:0:1 - - [02/Jun/2019:21:26:04 +0900] "GET /Hyeon_Toeic/notlogin.jsp HTTP/1.1" 200 1166
0:0:0:0:0:0:0:1 - - [02/Jun/2019:21:26:23 +0900] "GET /Hyeon_Toeic/notlogin.jsp HTTP/1.1" 200 1081
0:0:0:0:0:0:0:1 - - [02/Jun/2019:21:26:23 +0900] "GET /Hyeon_Toeic/notlogin.jsp HTTP/1.1" 200 1081
0:0:0:0:0:0:0:1 - - [02/Jun/2019:21:26:24 +0900] "GET /Hyeon_Toeic/notlogin.jsp HTTP/1.1" 200 1081
0:0:0:0:0:0:0:1 - - [02/Jun/2019:21:26:31 +0900] "GET /Hyeon_Toeic/notlogin.jsp HTTP/1.1" 200 1185
0:0:0:0:0:0:0:1 - - [02/Jun/2019:21:26:42 +0900] "GET /Hyeon_Toeic/index.jsp HTTP/1.1" 200 1602
0:0:0:0:0:0:0:1 - - [02/Jun/2019:21:27:57 +0900] "GET /Hyeon_Toeic/index.jsp HTTP/1.1" 200 1602
0:0:0:0:0:0:0:1 - - [02/Jun/2019:21:27:57 +0900] "GET /Hyeon_Toeic/index.jsp HTTP/1.1" 200 1602
0:0:0:0:0:0:0:1 - - [02/Jun/2019:21:27:57 +0900] "GET /Hyeon_Toeic/index.jsp HTTP/1.1" 200 1602
0:0:0:0:0:0:0:1 - - [02/Jun/2019:21:28:08 +0900] "GET /Hyeon_Toeic/op/register HTTP/1.1" 200 3055
0:0:0:0:0:0:0:1 - - [02/Jun/2019:21:28:09 +0900] "GET /Hyeon_Toeic/op/js/bootstrap.min.js HTTP/1.1" 200 1157
0:0:0:0:0:0:0:1 - - [02/Jun/2019:21:28:09 +0900] "GET /Hyeon_Toeic/op/css/bootstrap.min.css HTTP/1.1" 200 1157
0:0:0:0:0:0:0:1 - - [02/Jun/2019:21:28:17 +0900] "GET /Hyeon_Toeic/op/test HTTP/1.1" 200 1899
0:0:0:0:0:0:0:1 - - [02/Jun/2019:21:28:17 +0900] "GET /Hyeon_Toeic/op/css/bootstrap.min.css HTTP/1.1" 200 1157
0:0:0:0:0:0:0:1 - - [02/Jun/2019:21:28:17 +0900] "GET /Hyeon_Toeic/op/js/bootstrap.min.js HTTP/1.1" 200 1157
0:0:0:0:0:0:0:1 - - [02/Jun/2019:21:28:31 +0900] "GET /Hyeon_Toeic/op/test HTTP/1.1" 200 1898
0:0:0:0:0:0:0:1 - - [02/Jun/2019:21:28:31 +0900] "GET /Hyeon_Toeic/op/css/bootstrap.min.css HTTP/1.1" 200 1157
0:0:0:0:0:0:0:1 - - [02/Jun/2019:21:28:31 +0900] "GET /Hyeon_Toeic/op/js/bootstrap.min.js HTTP/1.1" 200 1157
0:0:0:0:0:0:0:1 - - [02/Jun/2019:21:28:44 +0900] "POST /Hyeon_Toeic/op/testing1 HTTP/1.1" 200 1170
0:0:0:0:0:0:0:1 - - [02/Jun/2019:21:28:44 +0900] "GET /Hyeon_Toeic/op/css/bootstrap.min.css HTTP/1.1" 200 1157
0:0:0:0:0:0:0:1 - - [02/Jun/2019:21:28:44 +0900] "GET /Hyeon_Toeic/op/js/bootstrap.min.js HTTP/1.1" 200 1157
0:0:0:0:0:0:0:1 - - [02/Jun/2019:21:28:50 +0900] "POST /Hyeon_Toeic/op/testing1 HTTP/1.1" 200 1170
0:0:0:0:0:0:0:1 - - [02/Jun/2019:21:28:50 +0900] "GET /Hyeon_Toeic/op/css/bootstrap.min.css HTTP/1.1" 200 1157
0:0:0:0:0:0:0:1 - - [02/Jun/2019:21:28:50 +0900] "GET /Hyeon_Toeic/op/js/bootstrap.min.js HTTP/1.1" 200 1157
0:0:0:0:0:0:0:1 - - [02/Jun/2019:21:28:51 +0900] "GET /Hyeon_Toeic/index.jsp HTTP/1.1" 200 1589
0:0:0:0:0:0:0:1 - - [02/Jun/2019:21:28:52 +0900] "GET /Hyeon_Toeic/op/register HTTP/1.1" 200 3055
0:0:0:0:0:0:0:1 - - [02/Jun/2019:21:28:52 +0900] "GET /Hyeon_Toeic/op/css/bootstrap.min.css HTTP/1.1" 200 1157
0:0:0:0:0:0:0:1 - - [02/Jun/2019:21:28:52 +0900] "GET /Hyeon_Toeic/op/js/bootstrap.min.js HTTP/1.1" 200 1157
0:0:0:0:0:0:0:1 - - [02/Jun/2019:21:28:54 +0900] "GET /Hyeon_Toeic/op/test HTTP/1.1" 200 1898
0:0:0:0:0:0:0:1 - - [02/Jun/2019:21:28:54 +0900] "GET /Hyeon_Toeic/op/js/bootstrap.min.js HTTP/1.1" 200 1157
0:0:0:0:0:0:0:1 - - [02/Jun/2019:21:28:54 +0900] "GET /Hyeon_Toeic/op/css/bootstrap.min.css HTTP/1.1" 200 1157
127.0.0.1 - - [02/Jun/2019:21:49:54 +0900] "GET / HTTP/1.1" 404 1115
0:0:0:0:0:0:0:1 - - [02/Jun/2019:21:49:55 +0900] "GET /Hyeon_Toeic/index.jsp HTTP/1.1" 200 1589
0:0:0:0:0:0:0:1 - - [02/Jun/2019:21:49:56 +0900] "GET /Hyeon_Toeic/op/test HTTP/1.1" 200 1898
0:0:0:0:0:0:0:1 - - [02/Jun/2019:21:49:57 +0900] "GET /Hyeon_Toeic/op/js/bootstrap.min.js HTTP/1.1" 200 1157
0:0:0:0:0:0:0:1 - - [02/Jun/2019:21:49:57 +0900] "GET /Hyeon_Toeic/op/css/bootstrap.min.css HTTP/1.1" 200 1157
0:0:0:0:0:0:0:1 - - [02/Jun/2019:21:50:04 +0900] "POST /Hyeon_Toeic/op/testing1 HTTP/1.1" 500 1516
127.0.0.1 - - [02/Jun/2019:21:53:07 +0900] "GET / HTTP/1.1" 404 1115
0:0:0:0:0:0:0:1 - - [02/Jun/2019:21:53:08 +0900] "GET /Hyeon_Toeic/index.jsp HTTP/1.1" 200 1589
0:0:0:0:0:0:0:1 - - [02/Jun/2019:21:53:11 +0900] "GET /Hyeon_Toeic/op/test HTTP/1.1" 200 1898
0:0:0:0:0:0:0:1 - - [02/Jun/2019:21:53:11 +0900] "GET /Hyeon_Toeic/op/css/bootstrap.min.css HTTP/1.1" 200 1157
0:0:0:0:0:0:0:1 - - [02/Jun/2019:21:53:11 +0900] "GET /Hyeon_Toeic/op/js/bootstrap.min.js HTTP/1.1" 200 1157
0:0:0:0:0:0:0:1 - - [02/Jun/2019:21:53:17 +0900] "POST /Hyeon_Toeic/op/testing1 HTTP/1.1" 500 1516
0:0:0:0:0:0:0:1 - - [02/Jun/2019:21:55:48 +0900] "POST /Hyeon_Toeic/op/testing1 HTTP/1.1" 500 1516
0:0:0:0:0:0:0:1 - - [02/Jun/2019:21:55:51 +0900] "POST /Hyeon_Toeic/op/testing1 HTTP/1.1" 500 1516
127.0.0.1 - - [02/Jun/2019:21:59:56 +0900] "GET / HTTP/1.1" 404 1115
0:0:0:0:0:0:0:1 - - [02/Jun/2019:21:59:56 +0900] "GET /Hyeon_Toeic/index.jsp HTTP/1.1" 200 1589
0:0:0:0:0:0:0:1 - - [02/Jun/2019:21:59:58 +0900] "GET /Hyeon_Toeic/op/test HTTP/1.1" 200 1884
0:0:0:0:0:0:0:1 - - [02/Jun/2019:21:59:58 +0900] "GET /Hyeon_Toeic/op/css/bootstrap.min.css HTTP/1.1" 200 1157
0:0:0:0:0:0:0:1 - - [02/Jun/2019:21:59:58 +0900] "GET /Hyeon_Toeic/op/js/bootstrap.min.js HTTP/1.1" 200 1157
0:0:0:0:0:0:0:1 - - [02/Jun/2019:22:00:04 +0900] "POST /Hyeon_Toeic/op/testing1 HTTP/1.1" 200 1170
0:0:0:0:0:0:0:1 - - [02/Jun/2019:22:00:04 +0900] "GET /Hyeon_Toeic/op/css/bootstrap.min.css HTTP/1.1" 200 1157
0:0:0:0:0:0:0:1 - - [02/Jun/2019:22:00:04 +0900] "GET /Hyeon_Toeic/op/js/bootstrap.min.js HTTP/1.1" 200 1157
0:0:0:0:0:0:0:1 - - [02/Jun/2019:22:02:28 +0900] "GET /Hyeon_Toeic/index.jsp HTTP/1.1" 200 1589
0:0:0:0:0:0:0:1 - - [02/Jun/2019:22:02:30 +0900] "GET /Hyeon_Toeic/op/test HTTP/1.1" 200 1868
0:0:0:0:0:0:0:1 - - [02/Jun/2019:22:02:30 +0900] "GET /Hyeon_Toeic/op/css/bootstrap.min.css HTTP/1.1" 200 1157
0:0:0:0:0:0:0:1 - - [02/Jun/2019:22:02:30 +0900] "GET /Hyeon_Toeic/op/js/bootstrap.min.js HTTP/1.1" 200 1157
0:0:0:0:0:0:0:1 - - [02/Jun/2019:22:02:36 +0900] "POST /Hyeon_Toeic/op/testing1 HTTP/1.1" 200 1170
0:0:0:0:0:0:0:1 - - [02/Jun/2019:22:02:36 +0900] "GET /Hyeon_Toeic/op/js/bootstrap.min.js HTTP/1.1" 200 1157
0:0:0:0:0:0:0:1 - - [02/Jun/2019:22:02:36 +0900] "GET /Hyeon_Toeic/op/css/bootstrap.min.css HTTP/1.1" 200 1157
127.0.0.1 - - [02/Jun/2019:22:03:31 +0900] "GET / HTTP/1.1" 404 1115
0:0:0:0:0:0:0:1 - - [02/Jun/2019:22:03:32 +0900] "GET /Hyeon_Toeic/index.jsp HTTP/1.1" 200 1589
0:0:0:0:0:0:0:1 - - [02/Jun/2019:22:03:33 +0900] "GET /Hyeon_Toeic/op/test HTTP/1.1" 500 2088
127.0.0.1 - - [02/Jun/2019:22:04:00 +0900] "GET / HTTP/1.1" 404 1115
0:0:0:0:0:0:0:1 - - [02/Jun/2019:22:04:00 +0900] "GET /Hyeon_Toeic/index.jsp HTTP/1.1" 200 1589
0:0:0:0:0:0:0:1 - - [02/Jun/2019:22:04:01 +0900] "GET /Hyeon_Toeic/op/test HTTP/1.1" 200 1868
0:0:0:0:0:0:0:1 - - [02/Jun/2019:22:04:02 +0900] "GET /Hyeon_Toeic/op/css/bootstrap.min.css HTTP/1.1" 200 1194
0:0:0:0:0:0:0:1 - - [02/Jun/2019:22:04:02 +0900] "GET /Hyeon_Toeic/op/js/bootstrap.min.js HTTP/1.1" 200 1194
0:0:0:0:0:0:0:1 - - [02/Jun/2019:22:04:07 +0900] "POST /Hyeon_Toeic/op/testing1 HTTP/1.1" 200 1170
0:0:0:0:0:0:0:1 - - [02/Jun/2019:22:04:07 +0900] "GET /Hyeon_Toeic/op/css/bootstrap.min.css HTTP/1.1" 200 1194
0:0:0:0:0:0:0:1 - - [02/Jun/2019:22:04:07 +0900] "GET /Hyeon_Toeic/op/js/bootstrap.min.js HTTP/1.1" 200 1194
127.0.0.1 - - [02/Jun/2019:22:06:05 +0900] "GET / HTTP/1.1" 404 1115
0:0:0:0:0:0:0:1 - - [02/Jun/2019:22:06:06 +0900] "GET /Hyeon_Toeic/index.jsp HTTP/1.1" 200 1589
0:0:0:0:0:0:0:1 - - [02/Jun/2019:22:06:11 +0900] "GET /Hyeon_Toeic/op/test HTTP/1.1" 200 1868
0:0:0:0:0:0:0:1 - - [02/Jun/2019:22:06:11 +0900] "GET /Hyeon_Toeic/op/js/bootstrap.min.js HTTP/1.1" 200 1194
0:0:0:0:0:0:0:1 - - [02/Jun/2019:22:06:11 +0900] "GET /Hyeon_Toeic/op/css/bootstrap.min.css HTTP/1.1" 200 1194
0:0:0:0:0:0:0:1 - - [02/Jun/2019:22:06:15 +0900] "POST /Hyeon_Toeic/op/testing1 HTTP/1.1" 200 1170
0:0:0:0:0:0:0:1 - - [02/Jun/2019:22:06:15 +0900] "GET /Hyeon_Toeic/op/css/bootstrap.min.css HTTP/1.1" 200 1194
0:0:0:0:0:0:0:1 - - [02/Jun/2019:22:06:15 +0900] "GET /Hyeon_Toeic/op/js/bootstrap.min.js HTTP/1.1" 200 1194
127.0.0.1 - - [02/Jun/2019:22:07:20 +0900] "GET / HTTP/1.1" 404 1115
0:0:0:0:0:0:0:1 - - [02/Jun/2019:22:07:20 +0900] "GET /Hyeon_Toeic/index.jsp HTTP/1.1" 200 1589
0:0:0:0:0:0:0:1 - - [02/Jun/2019:22:07:21 +0900] "GET /Hyeon_Toeic/op/test HTTP/1.1" 200 1868
0:0:0:0:0:0:0:1 - - [02/Jun/2019:22:07:21 +0900] "GET /Hyeon_Toeic/op/js/bootstrap.min.js HTTP/1.1" 200 1194
0:0:0:0:0:0:0:1 - - [02/Jun/2019:22:07:21 +0900] "GET /Hyeon_Toeic/op/css/bootstrap.min.css HTTP/1.1" 200 1194
0:0:0:0:0:0:0:1 - - [02/Jun/2019:22:07:25 +0900] "POST /Hyeon_Toeic/op/testing1 HTTP/1.1" 200 1170
0:0:0:0:0:0:0:1 - - [02/Jun/2019:22:07:25 +0900] "GET /Hyeon_Toeic/op/css/bootstrap.min.css HTTP/1.1" 200 1194
0:0:0:0:0:0:0:1 - - [02/Jun/2019:22:07:25 +0900] "GET /Hyeon_Toeic/op/js/bootstrap.min.js HTTP/1.1" 200 1194
127.0.0.1 - - [02/Jun/2019:22:07:47 +0900] "GET / HTTP/1.1" 404 1115
0:0:0:0:0:0:0:1 - - [02/Jun/2019:22:07:48 +0900] "GET /Hyeon_Toeic/index.jsp HTTP/1.1" 200 1589
0:0:0:0:0:0:0:1 - - [02/Jun/2019:22:07:50 +0900] "GET /Hyeon_Toeic/op/test HTTP/1.1" 200 1868
0:0:0:0:0:0:0:1 - - [02/Jun/2019:22:07:50 +0900] "GET /Hyeon_Toeic/op/css/bootstrap.min.css HTTP/1.1" 200 1194
0:0:0:0:0:0:0:1 - - [02/Jun/2019:22:07:50 +0900] "GET /Hyeon_Toeic/op/js/bootstrap.min.js HTTP/1.1" 200 1194
0:0:0:0:0:0:0:1 - - [02/Jun/2019:22:07:54 +0900] "POST /Hyeon_Toeic/op/testing1 HTTP/1.1" 200 1170
0:0:0:0:0:0:0:1 - - [02/Jun/2019:22:07:54 +0900] "GET /Hyeon_Toeic/op/css/bootstrap.min.css HTTP/1.1" 200 1194
0:0:0:0:0:0:0:1 - - [02/Jun/2019:22:07:54 +0900] "GET /Hyeon_Toeic/op/js/bootstrap.min.js HTTP/1.1" 200 1194
0:0:0:0:0:0:0:1 - - [02/Jun/2019:23:38:08 +0900] "GET /Hyeon_Toeic/index.jsp HTTP/1.1" 200 1589
0:0:0:0:0:0:0:1 - - [02/Jun/2019:23:38:13 +0900] "GET /Hyeon_Toeic/op/register HTTP/1.1" 200 3055
0:0:0:0:0:0:0:1 - - [02/Jun/2019:23:38:13 +0900] "GET /Hyeon_Toeic/op/css/bootstrap.min.css HTTP/1.1" 200 1194
0:0:0:0:0:0:0:1 - - [02/Jun/2019:23:38:13 +0900] "GET /Hyeon_Toeic/op/js/bootstrap.min.js HTTP/1.1" 200 1194
0:0:0:0:0:0:0:1 - - [02/Jun/2019:23:38:39 +0900] "POST /Hyeon_Toeic/op/register.do HTTP/1.1" 200 1220
0:0:0:0:0:0:0:1 - - [02/Jun/2019:23:38:39 +0900] "GET /Hyeon_Toeic/op/js/bootstrap.min.js HTTP/1.1" 200 1194
0:0:0:0:0:0:0:1 - - [02/Jun/2019:23:38:39 +0900] "GET /Hyeon_Toeic/op/css/bootstrap.min.css HTTP/1.1" 200 1194
0:0:0:0:0:0:0:1 - - [02/Jun/2019:23:38:41 +0900] "GET /Hyeon_Toeic/index.jsp HTTP/1.1" 200 1589
0:0:0:0:0:0:0:1 - - [02/Jun/2019:23:38:42 +0900] "GET /Hyeon_Toeic/op/test HTTP/1.1" 200 1868
0:0:0:0:0:0:0:1 - - [02/Jun/2019:23:38:42 +0900] "GET /Hyeon_Toeic/op/js/bootstrap.min.js HTTP/1.1" 200 1194
0:0:0:0:0:0:0:1 - - [02/Jun/2019:23:38:42 +0900] "GET /Hyeon_Toeic/op/css/bootstrap.min.css HTTP/1.1" 200 1194
0:0:0:0:0:0:0:1 - - [02/Jun/2019:23:38:48 +0900] "POST /Hyeon_Toeic/op/testing1 HTTP/1.1" 200 1170
0:0:0:0:0:0:0:1 - - [02/Jun/2019:23:38:48 +0900] "GET /Hyeon_Toeic/op/css/bootstrap.min.css HTTP/1.1" 200 1194
0:0:0:0:0:0:0:1 - - [02/Jun/2019:23:38:48 +0900] "GET /Hyeon_Toeic/op/js/bootstrap.min.js HTTP/1.1" 200 1194
127.0.0.1 - - [02/Jun/2019:23:40:29 +0900] "GET / HTTP/1.1" 404 1115
0:0:0:0:0:0:0:1 - - [02/Jun/2019:23:40:30 +0900] "GET /Hyeon_Toeic/index.jsp HTTP/1.1" 200 1589
0:0:0:0:0:0:0:1 - - [02/Jun/2019:23:40:31 +0900] "GET /Hyeon_Toeic/op/test HTTP/1.1" 200 1868
0:0:0:0:0:0:0:1 - - [02/Jun/2019:23:40:31 +0900] "GET /Hyeon_Toeic/op/js/bootstrap.min.js HTTP/1.1" 200 1194
0:0:0:0:0:0:0:1 - - [02/Jun/2019:23:40:31 +0900] "GET /Hyeon_Toeic/op/css/bootstrap.min.css HTTP/1.1" 200 1194
0:0:0:0:0:0:0:1 - - [02/Jun/2019:23:40:35 +0900] "POST /Hyeon_Toeic/op/testing1 HTTP/1.1" 200 1170
0:0:0:0:0:0:0:1 - - [02/Jun/2019:23:40:35 +0900] "GET /Hyeon_Toeic/op/css/bootstrap.min.css HTTP/1.1" 200 1194
0:0:0:0:0:0:0:1 - - [02/Jun/2019:23:40:35 +0900] "GET /Hyeon_Toeic/op/js/bootstrap.min.js HTTP/1.1" 200 1194
127.0.0.1 - - [02/Jun/2019:23:41:44 +0900] "GET / HTTP/1.1" 404 1115
0:0:0:0:0:0:0:1 - - [02/Jun/2019:23:41:45 +0900] "GET /Hyeon_Toeic/index.jsp HTTP/1.1" 200 1589
0:0:0:0:0:0:0:1 - - [02/Jun/2019:23:41:46 +0900] "GET /Hyeon_Toeic/op/test HTTP/1.1" 200 1868
0:0:0:0:0:0:0:1 - - [02/Jun/2019:23:41:46 +0900] "GET /Hyeon_Toeic/op/css/bootstrap.min.css HTTP/1.1" 200 1194
0:0:0:0:0:0:0:1 - - [02/Jun/2019:23:41:46 +0900] "GET /Hyeon_Toeic/op/js/bootstrap.min.js HTTP/1.1" 200 1194
0:0:0:0:0:0:0:1 - - [02/Jun/2019:23:41:52 +0900] "POST /Hyeon_Toeic/op/testing1 HTTP/1.1" 200 1170
0:0:0:0:0:0:0:1 - - [02/Jun/2019:23:41:52 +0900] "GET /Hyeon_Toeic/op/css/bootstrap.min.css HTTP/1.1" 200 1194
0:0:0:0:0:0:0:1 - - [02/Jun/2019:23:41:52 +0900] "GET /Hyeon_Toeic/op/js/bootstrap.min.js HTTP/1.1" 200 1194
127.0.0.1 - - [02/Jun/2019:23:42:20 +0900] "GET / HTTP/1.1" 404 1115
0:0:0:0:0:0:0:1 - - [02/Jun/2019:23:42:21 +0900] "GET /Hyeon_Toeic/index.jsp HTTP/1.1" 200 1589
0:0:0:0:0:0:0:1 - - [02/Jun/2019:23:42:21 +0900] "GET /Hyeon_Toeic/op/test HTTP/1.1" 200 1868
0:0:0:0:0:0:0:1 - - [02/Jun/2019:23:42:22 +0900] "GET /Hyeon_Toeic/op/js/bootstrap.min.js HTTP/1.1" 200 1194
0:0:0:0:0:0:0:1 - - [02/Jun/2019:23:42:22 +0900] "GET /Hyeon_Toeic/op/css/bootstrap.min.css HTTP/1.1" 200 1194
